dump.vcd
$date
	Mon Apr  3 23:17:37 2017
$end
$version
	Icarus Verilog
$end
$timescale
	1ns
$end
$scope module IFStage_tb $end
$var wire 32 ! request_data [31:0] $end
$var wire 1 " fetch_data_valid $end
$var reg 1 # clk $end
$var reg 1 $ en $end
$var reg 1 % rst $end
$var integer 32 & i [31:0] $end
$scope module core $end
$var wire 1 # clk $end
$var wire 1 $ en $end
$var wire 1 % rst $end
$var wire 32 ' request_data [31:0] $end
$var wire 1 ( fetch_req $end
$var wire 1 " fetch_data_valid $end
$var wire 32 ) fetch_addr_next [31:0] $end
$var wire 32 * fetch_addr [31:0] $end
$scope module InstructionMemory $end
$var wire 1 # clk $end
$var wire 1 % rst $end
$var wire 1 ( fetch_req $end
$var wire 32 + fetch_addr [31:0] $end
$var reg 1 " fetch_data_valid $end
$var reg 30 , inst_addr [29:0] $end
$var reg 32 - request_data [31:0] $end
$upscope $end
$scope module PCNext $end
$var wire 32 . out [31:0] $end
$var wire 32 / in [31:0] $end
$upscope $end
$scope module PCReg $end
$var wire 1 # clk $end
$var wire 32 0 d [31:0] $end
$var wire 1 $ en $end
$var wire 1 % rst $end
$var reg 32 1 q [31:0] $end
$var reg 1 ( valid $end
$upscope $end
$upscope $end
$upscope $end
$enddefinitions $end
#0
$dumpvars
b0 1
b100 0
b0 /
b100 .
b100000000000000000001010010011 -
b0 ,
b0 +
b0 *
b100 )
1(
b100000000000000000001010010011 '
b0 &
0%
x$
0#
1"
b100000000000000000001010010011 !
$end
#5
1#
#10
0#
b1 &
1$
1%
#15
b10100000000001100110011 !
b10100000000001100110011 '
b10100000000001100110011 -
b1 ,
b1000 )
b1000 .
b1000 0
b100 *
b100 +
b100 /
b100 1
1#
#20
0#
b10 &
#25
b11000110000001110110011 !
b11000110000001110110011 '
b11000110000001110110011 -
b10 ,
b1100 )
b1100 .
b1100 0
b1000 *
b1000 +
b1000 /
b1000 1
1#
#30
0#
b11 &
#35
b11100111000111000110011 !
b11100111000111000110011 '
b11100111000111000110011 -
b11 ,
b10000 )
b10000 .
b10000 0
b1100 *
b1100 +
b1100 /
b1100 1
1#
#40
0#
b100 &
#45
b101000000000010100010011 !
b101000000000010100010011 '
b101000000000010100010011 -
b100 ,
b10100 )
b10100 .
b10100 0
b10000 *
b10000 +
b10000 /
b10000 1
1#
#50
0#
b101 &
#55
b1110011 !
b1110011 '
b1110011 -
b101 ,
b11000 )
b11000 .
b11000 0
b10100 *
b10100 +
b10100 /
b10100 1
1#
#60
0#
b110 &
#65
bx !
bx '
bx -
b110 ,
b11100 )
b11100 .
b11100 0
b11000 *
b11000 +
b11000 /
b11000 1
1#
#70
0#
b111 &
#75
b111 ,
b100000 )
b100000 .
b100000 0
b11100 *
b11100 +
b11100 /
b11100 1
1#
#80
0#
b1000 &
#85
b1000 ,
b100100 )
b100100 .
b100100 0
b100000 *
b100000 +
b100000 /
b100000 1
1#
#90
0#
b1001 &
#95
b1001 ,
b101000 )
b101000 .
b101000 0
b100100 *
b100100 +
b100100 /
b100100 1
1#
#100
0#
b1010 &
#105
b1010 ,
b101100 )
b101100 .
b101100 0
b101000 *
b101000 +
b101000 /
b101000 1
1#
#110
0#
b1011 &
#115
b1011 ,
b110000 )
b110000 .
b110000 0
b101100 *
b101100 +
b101100 /
b101100 1
1#
#120
0#
b1100 &
#125
b1100 ,
b110100 )
b110100 .
b110100 0
b110000 *
b110000 +
b110000 /
b110000 1
1#
#130
0#
b1101 &
#135
b1101 ,
b111000 )
b111000 .
b111000 0
b110100 *
b110100 +
b110100 /
b110100 1
1#
#140
0#
b1110 &
#145
b1110 ,
b111100 )
b111100 .
b111100 0
b111000 *
b111000 +
b111000 /
b111000 1
1#
#150
0#
b1111 &
#155
b1111 ,
b1000000 )
b1000000 .
b1000000 0
b111100 *
b111100 +
b111100 /
b111100 1
1#
#160
0#
b10000 &
#165
b10000 ,
b1000100 )
b1000100 .
b1000100 0
b1000000 *
b1000000 +
b1000000 /
b1000000 1
1#
#170
0#
b10001 &
#175
b10001 ,
b1001000 )
b1001000 .
b1001000 0
b1000100 *
b1000100 +
b1000100 /
b1000100 1
1#
#180
0#
b10010 &
#185
b10010 ,
b1001100 )
b1001100 .
b1001100 0
b1001000 *
b1001000 +
b1001000 /
b1001000 1
1#
#190
0#
b10011 &
#195
b10011 ,
b1010000 )
b1010000 .
b1010000 0
b1001100 *
b1001100 +
b1001100 /
b1001100 1
1#
#200
0#
b10100 &
#205
b10100 ,
b1010100 )
b1010100 .
b1010100 0
b1010000 *
b1010000 +
b1010000 /
b1010000 1
1#
#210
0#
b10101 &
#215
b10101 ,
b1011000 )
b1011000 .
b1011000 0
b1010100 *
b1010100 +
b1010100 /
b1010100 1
1#
#220
0#
b10110 &
#225
b10110 ,
b1011100 )
b1011100 .
b1011100 0
b1011000 *
b1011000 +
b1011000 /
b1011000 1
1#
#230
0#
b10111 &
#235
b10111 ,
b1100000 )
b1100000 .
b1100000 0
b1011100 *
b1011100 +
b1011100 /
b1011100 1
1#
#240
0#
b11000 &
#245
b11000 ,
b1100100 )
b1100100 .
b1100100 0
b1100000 *
b1100000 +
b1100000 /
b1100000 1
1#
#250
0#
b11001 &
#255
b11001 ,
b1101000 )
b1101000 .
b1101000 0
b1100100 *
b1100100 +
b1100100 /
b1100100 1
1#
#260
0#
b11010 &
#265
b11010 ,
b1101100 )
b1101100 .
b1101100 0
b1101000 *
b1101000 +
b1101000 /
b1101000 1
1#
#270
0#
b11011 &
#275
b11011 ,
b1110000 )
b1110000 .
b1110000 0
b1101100 *
b1101100 +
b1101100 /
b1101100 1
1#
#280
0#
b11100 &
#285
b11100 ,
b1110100 )
b1110100 .
b1110100 0
b1110000 *
b1110000 +
b1110000 /
b1110000 1
1#
#290
0#
b11101 &
#295
b11101 ,
b1111000 )
b1111000 .
b1111000 0
b1110100 *
b1110100 +
b1110100 /
b1110100 1
1#
#300
0#
b11110 &
#305
b11110 ,
b1111100 )
b1111100 .
b1111100 0
b1111000 *
b1111000 +
b1111000 /
b1111000 1
1#
#310
0#
b11111 &
#315
b11111 ,
b10000000 )
b10000000 .
b10000000 0
b1111100 *
b1111100 +
b1111100 /
b1111100 1
1#
#320
0#
b100000 &
#325
b100000 ,
b10000100 )
b10000100 .
b10000100 0
b10000000 *
b10000000 +
b10000000 /
b10000000 1
1#
#330
0#
b100001 &
#335
b100001 ,
b10001000 )
b10001000 .
b10001000 0
b10000100 *
b10000100 +
b10000100 /
b10000100 1
1#
#340
0#
b100010 &
#345
b100010 ,
b10001100 )
b10001100 .
b10001100 0
b10001000 *
b10001000 +
b10001000 /
b10001000 1
1#
#350
0#
b100011 &
#355
b100011 ,
b10010000 )
b10010000 .
b10010000 0
b10001100 *
b10001100 +
b10001100 /
b10001100 1
1#
#360
0#
b100100 &
#365
b100100 ,
b10010100 )
b10010100 .
b10010100 0
b10010000 *
b10010000 +
b10010000 /
b10010000 1
1#
#370
0#
b100101 &
#375
b100101 ,
b10011000 )
b10011000 .
b10011000 0
b10010100 *
b10010100 +
b10010100 /
b10010100 1
1#
#380
0#
b100110 &
#385
b100110 ,
b10011100 )
b10011100 .
b10011100 0
b10011000 *
b10011000 +
b10011000 /
b10011000 1
1#
#390
0#
b100111 &
#395
b100111 ,
b10100000 )
b10100000 .
b10100000 0
b10011100 *
b10011100 +
b10011100 /
b10011100 1
1#
#400
0#
b101000 &
#405
b101000 ,
b10100100 )
b10100100 .
b10100100 0
b10100000 *
b10100000 +
b10100000 /
b10100000 1
1#
#410
0#
b101001 &
#415
b101001 ,
b10101000 )
b10101000 .
b10101000 0
b10100100 *
b10100100 +
b10100100 /
b10100100 1
1#
#420
0#
b101010 &
#425
b101010 ,
b10101100 )
b10101100 .
b10101100 0
b10101000 *
b10101000 +
b10101000 /
b10101000 1
1#
#430
0#
b101011 &
#435
b101011 ,
b10110000 )
b10110000 .
b10110000 0
b10101100 *
b10101100 +
b10101100 /
b10101100 1
1#
#440
0#
b101100 &
#445
b101100 ,
b10110100 )
b10110100 .
b10110100 0
b10110000 *
b10110000 +
b10110000 /
b10110000 1
1#
#450
0#
b101101 &
#455
b101101 ,
b10111000 )
b10111000 .
b10111000 0
b10110100 *
b10110100 +
b10110100 /
b10110100 1
1#
#460
0#
b101110 &
#465
b101110 ,
b10111100 )
b10111100 .
b10111100 0
b10111000 *
b10111000 +
b10111000 /
b10111000 1
1#
#470
0#
b101111 &
#475
b101111 ,
b11000000 )
b11000000 .
b11000000 0
b10111100 *
b10111100 +
b10111100 /
b10111100 1
1#
#480
0#
b110000 &
#485
b110000 ,
b11000100 )
b11000100 .
b11000100 0
b11000000 *
b11000000 +
b11000000 /
b11000000 1
1#
#490
0#
b110001 &
#495
b110001 ,
b11001000 )
b11001000 .
b11001000 0
b11000100 *
b11000100 +
b11000100 /
b11000100 1
1#
#500
0#
b110010 &
#505
b110010 ,
b11001100 )
b11001100 .
b11001100 0
b11001000 *
b11001000 +
b11001000 /
b11001000 1
1#
#510
0#
b110011 &
#515
b110011 ,
b11010000 )
b11010000 .
b11010000 0
b11001100 *
b11001100 +
b11001100 /
b11001100 1
1#
#520
0#
b110100 &
#525
b110100 ,
b11010100 )
b11010100 .
b11010100 0
b11010000 *
b11010000 +
b11010000 /
b11010000 1
1#
#530
0#
b110101 &
#535
b110101 ,
b11011000 )
b11011000 .
b11011000 0
b11010100 *
b11010100 +
b11010100 /
b11010100 1
1#
#540
0#
b110110 &
#545
b110110 ,
b11011100 )
b11011100 .
b11011100 0
b11011000 *
b11011000 +
b11011000 /
b11011000 1
1#
#550
0#
b110111 &
#555
b110111 ,
b11100000 )
b11100000 .
b11100000 0
b11011100 *
b11011100 +
b11011100 /
b11011100 1
1#
#560
0#
b111000 &
#565
b111000 ,
b11100100 )
b11100100 .
b11100100 0
b11100000 *
b11100000 +
b11100000 /
b11100000 1
1#
#570
0#
b111001 &
#575
b111001 ,
b11101000 )
b11101000 .
b11101000 0
b11100100 *
b11100100 +
b11100100 /
b11100100 1
1#
#580
0#
b111010 &
#585
b111010 ,
b11101100 )
b11101100 .
b11101100 0
b11101000 *
b11101000 +
b11101000 /
b11101000 1
1#
#590
0#
b111011 &
#595
b111011 ,
b11110000 )
b11110000 .
b11110000 0
b11101100 *
b11101100 +
b11101100 /
b11101100 1
1#
#600
0#
b111100 &
#605
b111100 ,
b11110100 )
b11110100 .
b11110100 0
b11110000 *
b11110000 +
b11110000 /
b11110000 1
1#
#610
0#
b111101 &
#615
b111101 ,
b11111000 )
b11111000 .
b11111000 0
b11110100 *
b11110100 +
b11110100 /
b11110100 1
1#
#620
0#
b111110 &
#625
b111110 ,
b11111100 )
b11111100 .
b11111100 0
b11111000 *
b11111000 +
b11111000 /
b11111000 1
1#
#630
0#
b111111 &
#635
b111111 ,
b100000000 )
b100000000 .
b100000000 0
b11111100 *
b11111100 +
b11111100 /
b11111100 1
1#
#640
0#
b1000000 &
#645
b1000000 ,
b100000100 )
b100000100 .
b100000100 0
b100000000 *
b100000000 +
b100000000 /
b100000000 1
1#
#650
0#
b1000001 &
#655
b1000001 ,
b100001000 )
b100001000 .
b100001000 0
b100000100 *
b100000100 +
b100000100 /
b100000100 1
1#
#660
0#
b1000010 &
#665
b1000010 ,
b100001100 )
b100001100 .
b100001100 0
b100001000 *
b100001000 +
b100001000 /
b100001000 1
1#
#670
0#
b1000011 &
#675
b1000011 ,
b100010000 )
b100010000 .
b100010000 0
b100001100 *
b100001100 +
b100001100 /
b100001100 1
1#
#680
0#
b1000100 &
#685
b1000100 ,
b100010100 )
b100010100 .
b100010100 0
b100010000 *
b100010000 +
b100010000 /
b100010000 1
1#
#690
0#
b1000101 &
#695
b1000101 ,
b100011000 )
b100011000 .
b100011000 0
b100010100 *
b100010100 +
b100010100 /
b100010100 1
1#
#700
0#
b1000110 &
#705
b1000110 ,
b100011100 )
b100011100 .
b100011100 0
b100011000 *
b100011000 +
b100011000 /
b100011000 1
1#
#710
0#
b1000111 &
#715
b1000111 ,
b100100000 )
b100100000 .
b100100000 0
b100011100 *
b100011100 +
b100011100 /
b100011100 1
1#
#720
0#
b1001000 &
#725
b1001000 ,
b100100100 )
b100100100 .
b100100100 0
b100100000 *
b100100000 +
b100100000 /
b100100000 1
1#
#730
0#
b1001001 &
#735
b1001001 ,
b100101000 )
b100101000 .
b100101000 0
b100100100 *
b100100100 +
b100100100 /
b100100100 1
1#
#740
0#
b1001010 &
#745
b1001010 ,
b100101100 )
b100101100 .
b100101100 0
b100101000 *
b100101000 +
b100101000 /
b100101000 1
1#
#750
0#
b1001011 &
#755
b1001011 ,
b100110000 )
b100110000 .
b100110000 0
b100101100 *
b100101100 +
b100101100 /
b100101100 1
1#
#760
0#
b1001100 &
#765
b1001100 ,
b100110100 )
b100110100 .
b100110100 0
b100110000 *
b100110000 +
b100110000 /
b100110000 1
1#
#770
0#
b1001101 &
#775
b1001101 ,
b100111000 )
b100111000 .
b100111000 0
b100110100 *
b100110100 +
b100110100 /
b100110100 1
1#
#780
0#
b1001110 &
#785
b1001110 ,
b100111100 )
b100111100 .
b100111100 0
b100111000 *
b100111000 +
b100111000 /
b100111000 1
1#
#790
0#
b1001111 &
#795
b1001111 ,
b101000000 )
b101000000 .
b101000000 0
b100111100 *
b100111100 +
b100111100 /
b100111100 1
1#
#800
0#
b1010000 &
#805
b1010000 ,
b101000100 )
b101000100 .
b101000100 0
b101000000 *
b101000000 +
b101000000 /
b101000000 1
1#
#810
0#
b1010001 &
#815
b1010001 ,
b101001000 )
b101001000 .
b101001000 0
b101000100 *
b101000100 +
b101000100 /
b101000100 1
1#
#820
0#
b1010010 &
#825
b1010010 ,
b101001100 )
b101001100 .
b101001100 0
b101001000 *
b101001000 +
b101001000 /
b101001000 1
1#
#830
0#
b1010011 &
#835
b1010011 ,
b101010000 )
b101010000 .
b101010000 0
b101001100 *
b101001100 +
b101001100 /
b101001100 1
1#
#840
0#
b1010100 &
#845
b1010100 ,
b101010100 )
b101010100 .
b101010100 0
b101010000 *
b101010000 +
b101010000 /
b101010000 1
1#
#850
0#
b1010101 &
#855
b1010101 ,
b101011000 )
b101011000 .
b101011000 0
b101010100 *
b101010100 +
b101010100 /
b101010100 1
1#
#860
0#
b1010110 &
#865
b1010110 ,
b101011100 )
b101011100 .
b101011100 0
b101011000 *
b101011000 +
b101011000 /
b101011000 1
1#
#870
0#
b1010111 &
#875
b1010111 ,
b101100000 )
b101100000 .
b101100000 0
b101011100 *
b101011100 +
b101011100 /
b101011100 1
1#
#880
0#
b1011000 &
#885
b1011000 ,
b101100100 )
b101100100 .
b101100100 0
b101100000 *
b101100000 +
b101100000 /
b101100000 1
1#
#890
0#
b1011001 &
#895
b1011001 ,
b101101000 )
b101101000 .
b101101000 0
b101100100 *
b101100100 +
b101100100 /
b101100100 1
1#
#900
0#
b1011010 &
#905
b1011010 ,
b101101100 )
b101101100 .
b101101100 0
b101101000 *
b101101000 +
b101101000 /
b101101000 1
1#
#910
0#
b1011011 &
#915
b1011011 ,
b101110000 )
b101110000 .
b101110000 0
b101101100 *
b101101100 +
b101101100 /
b101101100 1
1#
#920
0#
b1011100 &
#925
b1011100 ,
b101110100 )
b101110100 .
b101110100 0
b101110000 *
b101110000 +
b101110000 /
b101110000 1
1#
#930
0#
b1011101 &
#935
b1011101 ,
b101111000 )
b101111000 .
b101111000 0
b101110100 *
b101110100 +
b101110100 /
b101110100 1
1#
#940
0#
b1011110 &
#945
b1011110 ,
b101111100 )
b101111100 .
b101111100 0
b101111000 *
b101111000 +
b101111000 /
b101111000 1
1#
#950
0#
b1011111 &
#955
b1011111 ,
b110000000 )
b110000000 .
b110000000 0
b101111100 *
b101111100 +
b101111100 /
b101111100 1
1#
#960
0#
b1100000 &
#965
b1100000 ,
b110000100 )
b110000100 .
b110000100 0
b110000000 *
b110000000 +
b110000000 /
b110000000 1
1#
#970
0#
b1100001 &
#975
b1100001 ,
b110001000 )
b110001000 .
b110001000 0
b110000100 *
b110000100 +
b110000100 /
b110000100 1
1#
#980
0#
b1100010 &
#985
b1100010 ,
b110001100 )
b110001100 .
b110001100 0
b110001000 *
b110001000 +
b110001000 /
b110001000 1
1#
#990
0#
b1100011 &
#995
b1100011 ,
b110010000 )
b110010000 .
b110010000 0
b110001100 *
b110001100 +
b110001100 /
b110001100 1
1#
#1000
0#
b1100100 &
#1005
b1100100 ,
b110010100 )
b110010100 .
b110010100 0
b110010000 *
b110010000 +
b110010000 /
b110010000 1
1#
